{
  "name": "Sample-wonderOne",
  "version": "1.0.3-*",
  "packOptions": {
    "description": "Validation attributes, fluent interface, and extensions to validate models and throw rich exceptions.",
    "authors": [ "Jereme Evans" ],
    "licenseUrl": "https://github.com/jeremeevans/Espalier.Validate/blob/master/LICENSE.md",
    "projectUrl": "https://github.com/jeremeevans/Espalier.Validate/",
    "tags": [ "validation" ],
    "requireLicenseAcceptance": false,
    "owners": [ "Jereme Evans" ]
  },
  "runtimes": {
    "win7-x64": {},
    "win81-x64": {},
    "win8-x64": {}
  },
  "frameworks": {
    "net45": {
      "frameworkAssemblies": {
      }
    },
    "net451": {
      "frameworkAssemblies": {
      }
    },
    "net452": {
      "frameworkAssemblies": {
      }
    },
    "net46": {
      "frameworkAssemblies": {
      }
    },
    "net461": {
      "frameworkAssemblies": {
      }
    }
  }	
}
